A sp22-cs425-g68-01.cs.illinois.edu 1234
B sp22-cs425-g68-02.cs.illinois.edu 1234
C sp22-cs425-g68-03.cs.illinois.edu 1234
D sp22-cs425-g68-04.cs.illinois.edu 1234
E sp22-cs425-g68-05.cs.illinois.edu 1234
